M48
;DRILL file {KiCad (5.0.2)-1} date 20/01/2019 19:52:39
;FORMAT={-:-/ absolute / inch / decimal}
FMAT,2
INCH,TZ
T1C0.1280
T2C0.1693
%
G90
G05
T1
X4.463Y-2.102
X4.463Y-3.6453
X4.463Y-4.1453
X4.463Y-2.8776
X4.463Y-3.3776
X4.463Y-2.602
T2
X6.0965Y-3.9449
X4.3819Y-4.378
X6.1417Y-2.1161
X4.3819Y-1.8701
T0
M30
